{
    "domains": [
        {
            "vCenter_VMM": {
                "domain_type": "vmm",
                "vm_provider": "vmware"
            }
        }
    ],
    "tenants": [
        {
            "name": "juan",
            "description": "Juans_description",
            "vrfs": [
                {
                    "name": "Juans_vrf",
                    "description": "Insert_description"
                }
            ],
            "bridge_domains": [
                {
                    "name": "1st_BD_name",
                    "description": "Insert_description",
                    "vrf": "Juans_vrf",
                    "subnet": [
                        "10.0.1.254/24",
                        "10.0.2.254/24",
                        "10.0.3.254/24"
                    ]
                },
                {
                    "name": "2nd_BD_name",
                    "description": "Insert_description",
                    "vrf": "Juans_vrf",
                    "subnet": [
                        "10.0.4.254/24"
                    ]
                }
            ],
            "apps": [
                {
                    "name": "UserServices_APP",
                    "description": "Insert_description"
                }
            ],
            "epgs": [
                {
                    "name": "Web_EPG",
                    "description": "Insert_description",
                    "ap": "UserServices_APP",
                    "bd": "Insert_1st_BD_name",
                    "domain": "vCenter_VMM"
                },
                {
                    "name": "Email_EPG",
                    "description": "Insert_description",
                    "ap": "UserServices_APP",
                    "bd": "Insert_1st_BD_name",
                    "domain": "vCenter_VMM"
                },
                {
                    "name": "Storage_EPG",
                    "description": "Insert_description",
                    "ap": "UserServices_APP",
                    "bd": "Insert_1st_BD_name",
                    "domain": "vCenter_VMM"
                },
                {
                    "name": "User_EPG",
                    "description": "Insert_description",
                    "ap": "UserServices_APP",
                    "bd": "Insert_1st_BD_name",
                    "domain": "vCenter_VMM"
                }
            ],
            "filters": [
                {
                    "name": "web_filter",
                    "description": "Insert_description",
                    "entry": [
                        {
                            "name": "http",
                            "ethertype": "ip",
                            "ip_protocol": "tcp",
                            "destination_from": "80",
                            "destination_to": "80"
                        },
                        {
                            "name": "https",
                            "ethertype": "ip",
                            "ip_protocol": "tcp",
                            "destination_from": "443",
                            "destination_to": "443"
                        }
                    ]
                },
                {
                    "name": "email_filter",
                    "description": "Insert_description",
                    "entry": [
                        {
                            "name": "smtp",
                            "ethertype": "ip",
                            "ip_protocol": "tcp",
                            "destination_from": "25",
                            "destination_to": "25"
                        },
                        {
                            "name": "smtps",
                            "ethertype": "ip",
                            "ip_protocol": "tcp",
                            "destination_from": "587",
                            "destination_to": "587"
                        },
                        {
                            "name": "imaps",
                            "ethertype": "ip",
                            "ip_protocol": "tcp",
                            "destination_from": "993",
                            "destination_to": "993"
                        }
                    ]
                },
                {
                    "name": "storage_filter",
                    "description": "Insert_description",
                    "entry": [
                        {
                            "name": "pqsql",
                            "ethertype": "ip",
                            "ip_protocol": "tcp",
                            "destination_from": "5432",
                            "destination_to": "5432"
                        }
                    ]
                }
            ],
            "contracts": [
                {
                    "name": "WebServices_CON",
                    "filter": [
                        "web_filter"
                    ],
                    "description": "Managed by Ansible"
                },
                {
                    "name": "EmailServices_CON",
                    "filter": [
                        "email_filter",
                        "icmp"
                    ],
                    "description": "Managed by Ansible"
                },
                {
                    "name": "StorageServices_CON",
                    "filter": [
                        "storage_filter",
                        "icmp"
                    ],
                    "description": "Managed by Ansible"
                }
            ],
            "contract_bindings": [
                {
                    "epg": "User_EPG",
                    "ap": "UserServices_APP",
                    "contract": "WebServices_CON",
                    "type": "consumer"
                },
                {
                    "epg": "Web_EPG",
                    "ap": "UserServices_APP",
                    "contract": "WebServices_CON",
                    "type": "provider"
                },
                {
                    "epg": "User_EPG",
                    "ap": "UserServices_APP",
                    "contract": "EmailServices_CON",
                    "type": "consumer"
                },
                {
                    "epg": "Email_EPG",
                    "ap": "UserServices_APP",
                    "contract": "EmailServices_CON",
                    "type": "provider"
                },
                {
                    "epg": "Web_EPG",
                    "ap": "UserServices_APP",
                    "contract": "StorageServices_CON",
                    "type": "consumer"
                },
                {
                    "epg": "Email_EPG",
                    "ap": "UserServices_APP",
                    "contract": "StorageServices_CON",
                    "type": "consumer"
                },
                {
                    "epg": "Storage_EPG",
                    "ap": "UserServices_APP",
                    "contract": "StorageServices_CON",
                    "type": "provider"
                }
            ],
            "l3outs": [
                {
                    "name": "Juan-out",
                    "domain": "vCenter_VMM",
                    "vrf": "Juans_vrf",
                    "l3protocol": "bgp",
                    "route_control": ["export"],
                    "extepg": "juan02-out",
                    "l3extSubnet": {
                        "description":"External Subnet for ExtEpg",
                        "network": "192.0.2.0/24",
                        "scope": [
                            "export-rtctrl"
                        ]
                    }
                }
            ]
        },
                {
            "name": "juan",
            "description": "Juans_description",
            "vrfs": [
                {
                    "name": "Juans_vrf",
                    "description": "Insert_description"
                }
            ],
            "bridge_domains": [
                {
                    "name": "1st_BD_name",
                    "description": "Insert_description",
                    "vrf": "Juans_vrf",
                    "subnet": [
                        "10.0.1.254/24",
                        "10.0.2.254/24",
                        "10.0.3.254/24"
                    ]
                },
                {
                    "name": "2nd_BD_name",
                    "description": "Insert_description",
                    "vrf": "Juans_vrf",
                    "subnet": [
                        "10.0.4.254/24"
                    ]
                }
            ],
            "apps": [
                {
                    "name": "UserServices_APP",
                    "description": "Insert_description"
                }
            ],
            "epgs": [
                {
                    "name": "Web_EPG",
                    "description": "Insert_description",
                    "ap": "UserServices_APP",
                    "bd": "Insert_1st_BD_name",
                    "domain": "vCenter_VMM"
                },
                {
                    "name": "Email_EPG",
                    "description": "Insert_description",
                    "ap": "UserServices_APP",
                    "bd": "Insert_1st_BD_name",
                    "domain": "vCenter_VMM"
                },
                {
                    "name": "Storage_EPG",
                    "description": "Insert_description",
                    "ap": "UserServices_APP",
                    "bd": "Insert_1st_BD_name",
                    "domain": "vCenter_VMM"
                },
                {
                    "name": "User_EPG",
                    "description": "Insert_description",
                    "ap": "UserServices_APP",
                    "bd": "Insert_1st_BD_name",
                    "domain": "vCenter_VMM"
                }
            ],
            "filters": [
                {
                    "name": "web_filter",
                    "description": "Insert_description",
                    "entry": [
                        {
                            "name": "http",
                            "ethertype": "ip",
                            "ip_protocol": "tcp",
                            "destination_from": "80",
                            "destination_to": "80"
                        },
                        {
                            "name": "https",
                            "ethertype": "ip",
                            "ip_protocol": "tcp",
                            "destination_from": "443",
                            "destination_to": "443"
                        }
                    ]
                },
                {
                    "name": "email_filter",
                    "description": "Insert_description",
                    "entry": [
                        {
                            "name": "smtp",
                            "ethertype": "ip",
                            "ip_protocol": "tcp",
                            "destination_from": "25",
                            "destination_to": "25"
                        },
                        {
                            "name": "smtps",
                            "ethertype": "ip",
                            "ip_protocol": "tcp",
                            "destination_from": "587",
                            "destination_to": "587"
                        },
                        {
                            "name": "imaps",
                            "ethertype": "ip",
                            "ip_protocol": "tcp",
                            "destination_from": "993",
                            "destination_to": "993"
                        }
                    ]
                },
                {
                    "name": "storage_filter",
                    "description": "Insert_description",
                    "entry": [
                        {
                            "name": "pqsql",
                            "ethertype": "ip",
                            "ip_protocol": "tcp",
                            "destination_from": "5432",
                            "destination_to": "5432"
                        }
                    ]
                }
            ],
            "contracts": [
                {
                    "name": "WebServices_CON",
                    "filter": [
                        "web_filter"
                    ],
                    "description": "Managed by Ansible"
                },
                {
                    "name": "EmailServices_CON",
                    "filter": [
                        "email_filter",
                        "icmp"
                    ],
                    "description": "Managed by Ansible"
                },
                {
                    "name": "StorageServices_CON",
                    "filter": [
                        "storage_filter",
                        "icmp"
                    ],
                    "description": "Managed by Ansible"
                }
            ],
            "contract_bindings": [
                {
                    "epg": "User_EPG",
                    "ap": "UserServices_APP",
                    "contract": "WebServices_CON",
                    "type": "consumer"
                },
                {
                    "epg": "Web_EPG",
                    "ap": "UserServices_APP",
                    "contract": "WebServices_CON",
                    "type": "provider"
                },
                {
                    "epg": "User_EPG",
                    "ap": "UserServices_APP",
                    "contract": "EmailServices_CON",
                    "type": "consumer"
                },
                {
                    "epg": "Email_EPG",
                    "ap": "UserServices_APP",
                    "contract": "EmailServices_CON",
                    "type": "provider"
                },
                {
                    "epg": "Web_EPG",
                    "ap": "UserServices_APP",
                    "contract": "StorageServices_CON",
                    "type": "consumer"
                },
                {
                    "epg": "Email_EPG",
                    "ap": "UserServices_APP",
                    "contract": "StorageServices_CON",
                    "type": "consumer"
                },
                {
                    "epg": "Storage_EPG",
                    "ap": "UserServices_APP",
                    "contract": "StorageServices_CON",
                    "type": "provider"
                }
            ],
            "l3outs": [
                {
                    "name": "Juan-out",
                    "domain": "vCenter_VMM",
                    "vrf": "Juans_vrf",
                    "l3protocol": "bgp",
                    "route_control": ["export"],
                    "extepg": "juan02-out",
                    "l3extSubnet": {
                        "description":"External Subnet for ExtEpg",
                        "network": "192.0.2.0/24",
                        "scope": [
                            "export-rtctrl"
                        ]
                    }
                }
            ]
        }
    ]
}
